<?xml version="1.0" encoding="UTF-8" standalone="no"?>
<!-- Created with Inkscape (http://www.inkscape.org/) -->

<svg
   xmlns:dc="http://purl.org/dc/elements/1.1/"
   xmlns:cc="http://creativecommons.org/ns#"
   xmlns:rdf="http://www.w3.org/1999/02/22-rdf-syntax-ns#"
   xmlns:svg="http://www.w3.org/2000/svg"
   xmlns="http://www.w3.org/2000/svg"
   xmlns:sodipodi="http://sodipodi.sourceforge.net/DTD/sodipodi-0.dtd"
   xmlns:inkscape="http://www.inkscape.org/namespaces/inkscape"
   width="697.09521"
   height="615.09155"
   id="svg4788"
   version="1.1"
   inkscape:version="0.48.5 r10040"
   sodipodi:docname="db4sil2_big_picture_detailed.eps">
  <defs
     id="defs4790">
    <marker
       inkscape:stockid="Arrow1Lstart"
       orient="auto"
       refY="0"
       refX="0"
       id="Arrow1Lstart"
       style="overflow:visible">
      <path
         id="path3785"
         d="M 0,0 5,-5 -12.5,0 5,5 0,0 z"
         style="fill-rule:evenodd;stroke:#000000;stroke-width:1pt"
         transform="matrix(0.8,0,0,0.8,10,0)"
         inkscape:connector-curvature="0" />
    </marker>
    <marker
       inkscape:stockid="Arrow1Lend"
       orient="auto"
       refY="0"
       refX="0"
       id="Arrow1Lend-3"
       style="overflow:visible">
      <path
         inkscape:connector-curvature="0"
         id="path3788-28"
         d="M 0,0 5,-5 -12.5,0 5,5 0,0 z"
         style="fill-rule:evenodd;stroke:#000000;stroke-width:1pt"
         transform="matrix(-0.8,0,0,-0.8,-10,0)" />
    </marker>
    <marker
       inkscape:stockid="Arrow1Lend"
       orient="auto"
       refY="0"
       refX="0"
       id="marker4810"
       style="overflow:visible">
      <path
         inkscape:connector-curvature="0"
         id="path4812"
         d="M 0,0 5,-5 -12.5,0 5,5 0,0 z"
         style="fill-rule:evenodd;stroke:#000000;stroke-width:1pt"
         transform="matrix(-0.8,0,0,-0.8,-10,0)" />
    </marker>
    <marker
       inkscape:stockid="Arrow1Lend"
       orient="auto"
       refY="0"
       refX="0"
       id="Arrow1Lend"
       style="overflow:visible">
      <path
         id="path3788"
         d="M 0,0 5,-5 -12.5,0 5,5 0,0 z"
         style="fill-rule:evenodd;stroke:#000000;stroke-width:1pt"
         transform="matrix(-0.8,0,0,-0.8,-10,0)"
         inkscape:connector-curvature="0" />
    </marker>
    <marker
       inkscape:stockid="Arrow1Lend"
       orient="auto"
       refY="0"
       refX="0"
       id="marker4816"
       style="overflow:visible">
      <path
         id="path4818"
         d="M 0,0 5,-5 -12.5,0 5,5 0,0 z"
         style="fill-rule:evenodd;stroke:#000000;stroke-width:1pt"
         transform="matrix(-0.8,0,0,-0.8,-10,0)"
         inkscape:connector-curvature="0" />
    </marker>
    <marker
       inkscape:stockid="Arrow1Lend"
       orient="auto"
       refY="0"
       refX="0"
       id="marker4820"
       style="overflow:visible">
      <path
         id="path4822"
         d="M 0,0 5,-5 -12.5,0 5,5 0,0 z"
         style="fill-rule:evenodd;stroke:#000000;stroke-width:1pt"
         transform="matrix(-0.8,0,0,-0.8,-10,0)"
         inkscape:connector-curvature="0" />
    </marker>
    <marker
       inkscape:stockid="Arrow1Lend"
       orient="auto"
       refY="0"
       refX="0"
       id="marker4824"
       style="overflow:visible">
      <path
         id="path4826"
         d="M 0,0 5,-5 -12.5,0 5,5 0,0 z"
         style="fill-rule:evenodd;stroke:#000000;stroke-width:1pt"
         transform="matrix(-0.8,0,0,-0.8,-10,0)"
         inkscape:connector-curvature="0" />
    </marker>
    <marker
       inkscape:stockid="Arrow1Lend"
       orient="auto"
       refY="0"
       refX="0"
       id="marker4828"
       style="overflow:visible">
      <path
         id="path4830"
         d="M 0,0 5,-5 -12.5,0 5,5 0,0 z"
         style="fill-rule:evenodd;stroke:#000000;stroke-width:1pt"
         transform="matrix(-0.8,0,0,-0.8,-10,0)"
         inkscape:connector-curvature="0" />
    </marker>
  </defs>
  <sodipodi:namedview
     id="base"
     pagecolor="#ffffff"
     bordercolor="#666666"
     borderopacity="1.0"
     inkscape:pageopacity="0.0"
     inkscape:pageshadow="2"
     inkscape:zoom="0.98994949"
     inkscape:cx="210.9101"
     inkscape:cy="295.21931"
     inkscape:document-units="px"
     inkscape:current-layer="layer1"
     showgrid="false"
     fit-margin-top="10"
     fit-margin-right="10"
     fit-margin-bottom="10"
     fit-margin-left="10"
     inkscape:window-width="1920"
     inkscape:window-height="1014"
     inkscape:window-x="0"
     inkscape:window-y="27"
     inkscape:window-maximized="1" />
  <metadata
     id="metadata4793">
    <rdf:RDF>
      <cc:Work
         rdf:about="">
        <dc:format>image/svg+xml</dc:format>
        <dc:type
           rdf:resource="http://purl.org/dc/dcmitype/StillImage" />
        <dc:title></dc:title>
      </cc:Work>
    </rdf:RDF>
  </metadata>
  <g
     inkscape:label="Layer 1"
     inkscape:groupmode="layer"
     id="layer1"
     transform="translate(12.103036,-71.503953)">
    <rect
       style="fill:none;stroke:#000000;stroke-width:1;stroke-linejoin:miter;stroke-miterlimit:4;stroke-opacity:1;stroke-dasharray:none;stroke-dashoffset:0"
       id="rect2985"
       width="307.14255"
       height="357.09714"
       x="232.98903"
       y="122.79219" />
    <text
       xml:space="preserve"
       style="font-size:12px;font-style:normal;font-weight:normal;line-height:125%;letter-spacing:0px;word-spacing:0px;fill:#000000;fill-opacity:1;stroke:none;font-family:Sans"
       x="242.47963"
       y="138.67799"
       id="text3755"
       sodipodi:linespacing="125%"><tspan
         sodipodi:role="line"
         id="tspan3757"
         x="242.47963"
         y="138.67799">Data Aquisition</tspan></text>
    <rect
       style="fill:none;stroke:#000000;stroke-width:1;stroke-linejoin:miter;stroke-miterlimit:4;stroke-opacity:1;stroke-dasharray:none;stroke-dashoffset:0"
       id="rect3759"
       width="77.14286"
       height="70"
       x="60.468376"
       y="189.95247"
       rx="15"
       ry="15" />
    <rect
       style="fill:none;stroke:#000000;stroke-width:1;stroke-linejoin:miter;stroke-miterlimit:4;stroke-opacity:1;stroke-dasharray:none;stroke-dashoffset:0"
       id="rect3759-5"
       width="77"
       height="145.71428"
       x="60.539803"
       y="299.95248"
       rx="15"
       ry="15" />
    <path
       style="fill:none;stroke:#000000;stroke-width:1px;stroke-linecap:butt;stroke-linejoin:miter;stroke-opacity:1;marker-end:url(#Arrow1Lend);display:inline"
       d="m 133.92474,254.82232 128.9324,110.397"
       id="path3779"
       inkscape:connector-type="polyline"
       inkscape:connector-curvature="0"
       inkscape:connection-start="#rect3759"
       inkscape:connection-start-point="d4" />
    <path
       style="fill:none;stroke:#000000;stroke-width:1px;stroke-linecap:butt;stroke-linejoin:miter;stroke-opacity:1;marker-end:url(#Arrow1Lend);display:inline"
       d="m 137.5398,376.89965 129.15927,13.72116"
       id="path4225"
       inkscape:connector-type="polyline"
       inkscape:connector-curvature="0"
       inkscape:connection-start="#rect3759-5"
       inkscape:connection-start-point="d4" />
    <text
       xml:space="preserve"
       style="font-size:12px;font-style:normal;font-weight:normal;line-height:125%;letter-spacing:0px;word-spacing:0px;fill:#000000;fill-opacity:1;stroke:none;font-family:Sans"
       x="74.111229"
       y="209.23817"
       id="text4409"
       sodipodi:linespacing="125%"><tspan
         sodipodi:role="line"
         id="tspan4411"
         x="74.111229"
         y="209.23817">.cfg</tspan></text>
    <text
       xml:space="preserve"
       style="font-size:12px;font-style:normal;font-weight:normal;line-height:125%;letter-spacing:0px;word-spacing:0px;fill:#000000;fill-opacity:1;stroke:none;font-family:Sans"
       x="98.506737"
       y="333.97733"
       id="text4409-3"
       sodipodi:linespacing="125%"><tspan
         sodipodi:role="line"
         id="tspan4411-8"
         x="98.506737"
         y="333.97733"
         style="text-align:center;text-anchor:middle">List of test-</tspan><tspan
         sodipodi:role="line"
         x="98.506737"
         y="348.97733"
         id="tspan4434"
         style="text-align:center;text-anchor:middle">executables</tspan></text>
    <rect
       style="fill:none;stroke:#000000;stroke-width:1;stroke-linejoin:miter;stroke-miterlimit:4;stroke-opacity:1;stroke-dasharray:none;stroke-dashoffset:0"
       id="rect3759-6"
       width="77.14286"
       height="70"
       x="597.3493"
       y="82.003952"
       rx="15"
       ry="15" />
    <text
       xml:space="preserve"
       style="font-size:12px;font-style:normal;font-weight:normal;line-height:125%;letter-spacing:0px;word-spacing:0px;fill:#000000;fill-opacity:1;stroke:none;font-family:Sans"
       x="610.99219"
       y="101.28966"
       id="text4409-34"
       sodipodi:linespacing="125%"><tspan
         sodipodi:role="line"
         id="tspan4411-1"
         x="610.99219"
         y="101.28966">trace</tspan><tspan
         sodipodi:role="line"
         x="610.99219"
         y="116.28966"
         id="tspan4482">data</tspan></text>
    <rect
       style="fill:none;stroke:#000000;stroke-width:1;stroke-linejoin:miter;stroke-miterlimit:4;stroke-opacity:1;stroke-dasharray:none;stroke-dashoffset:0"
       id="rect3759-1"
       width="77.14286"
       height="70"
       x="597.3493"
       y="169.50395"
       rx="15"
       ry="15" />
    <text
       xml:space="preserve"
       style="font-size:12px;font-style:normal;font-weight:normal;line-height:125%;letter-spacing:0px;word-spacing:0px;fill:#000000;fill-opacity:1;stroke:none;font-family:Sans"
       x="610.99213"
       y="188.78966"
       id="text4409-1"
       sodipodi:linespacing="125%"><tspan
         sodipodi:role="line"
         id="tspan4411-3"
         x="610.99213"
         y="188.78966">timing</tspan><tspan
         sodipodi:role="line"
         x="610.99213"
         y="203.78966"
         id="tspan4484">data</tspan></text>
    <path
       inkscape:connector-curvature="0"
       inkscape:connector-type="polyline"
       id="path4506"
       d="M 474.64301,169.35787 597.34933,129.52499"
       style="fill:none;stroke:#000000;stroke-width:1px;stroke-linecap:butt;stroke-linejoin:miter;stroke-opacity:1;marker-end:url(#Arrow1Lend);display:inline"
       inkscape:connection-start="#rect5042-0"
       inkscape:connection-start-point="d4" />
    <path
       inkscape:connector-curvature="0"
       inkscape:connector-type="polyline"
       id="path4508"
       d="m 474.64301,204.07372 122.70632,0.32734"
       style="fill:none;stroke:#000000;stroke-width:1px;stroke-linecap:butt;stroke-linejoin:miter;stroke-opacity:1;marker-end:url(#Arrow1Lend);display:inline"
       inkscape:connection-start="#rect5042-0"
       inkscape:connection-start-point="d4" />
    <rect
       style="fill:none;stroke:#000000;stroke-width:1;stroke-linejoin:miter;stroke-miterlimit:4;stroke-opacity:1;stroke-dasharray:none;stroke-dashoffset:0"
       id="rect3759-0"
       width="77.14286"
       height="70"
       x="597.3493"
       y="257.00397"
       rx="15"
       ry="15" />
    <text
       xml:space="preserve"
       style="font-size:12px;font-style:normal;font-weight:normal;line-height:125%;letter-spacing:0px;word-spacing:0px;fill:#000000;fill-opacity:1;stroke:none;font-family:Sans"
       x="610.99219"
       y="276.28967"
       id="text4409-8"
       sodipodi:linespacing="125%"><tspan
         sodipodi:role="line"
         id="tspan4411-85"
         x="610.99219"
         y="276.28967">meta</tspan><tspan
         sodipodi:role="line"
         x="610.99219"
         y="291.28967"
         id="tspan4486">data</tspan></text>
    <rect
       style="fill:none;stroke:#000000;stroke-width:1;stroke-linejoin:miter;stroke-miterlimit:4;stroke-opacity:1;stroke-dasharray:none;stroke-dashoffset:0"
       id="rect3759-14"
       width="77.14286"
       height="70"
       x="273.21362"
       y="531.83124"
       rx="15"
       ry="15" />
    <text
       xml:space="preserve"
       style="font-size:12px;font-style:normal;font-weight:normal;line-height:125%;letter-spacing:0px;word-spacing:0px;fill:#000000;fill-opacity:1;stroke:none;font-family:Sans"
       x="286.85648"
       y="551.11694"
       id="text4409-0"
       sodipodi:linespacing="125%"><tspan
         sodipodi:role="line"
         id="tspan4411-0"
         x="286.85648"
         y="551.11694">ftrace</tspan><tspan
         sodipodi:role="line"
         x="286.85648"
         y="566.11694"
         id="tspan5940">config</tspan></text>
    <path
       style="fill:none;stroke:#000000;stroke-width:1px;stroke-linecap:butt;stroke-linejoin:miter;stroke-opacity:1;marker-end:url(#Arrow1Lend-3);display:inline"
       d="m 310.13563,457.29088 1.1224,74.54036"
       id="path5942"
       inkscape:connector-type="polyline"
       inkscape:connector-curvature="0"
       inkscape:connection-end="#rect3759-14"
       inkscape:connection-end-point="d4" />
    <rect
       style="fill:none;stroke:#000000;stroke-width:1;stroke-linejoin:miter;stroke-miterlimit:4;stroke-opacity:1;stroke-dasharray:none;stroke-dashoffset:0"
       id="rect3759-14-5"
       width="77.14286"
       height="70"
       x="379.27966"
       y="532.84143"
       rx="15"
       ry="15" />
    <path
       style="fill:none;stroke:#000000;stroke-width:1px;stroke-linecap:butt;stroke-linejoin:miter;stroke-opacity:1;marker-end:url(#Arrow1Lend-3);display:inline"
       d="m 416.66763,532.84143 -2.48629,-73.53025"
       id="path6148"
       inkscape:connector-type="polyline"
       inkscape:connector-curvature="0"
       inkscape:connection-start="#rect3759-14-5"
       inkscape:connection-start-point="d4" />
    <text
       xml:space="preserve"
       style="font-size:12px;font-style:normal;font-weight:normal;line-height:125%;letter-spacing:0px;word-spacing:0px;fill:#000000;fill-opacity:1;stroke:none;font-family:Sans"
       x="391.80212"
       y="549.50983"
       id="text4409-0-1"
       sodipodi:linespacing="125%"><tspan
         sodipodi:role="line"
         x="391.80212"
         y="549.50983"
         id="tspan5940-9">tracing</tspan><tspan
         sodipodi:role="line"
         x="391.80212"
         y="564.50983"
         id="tspan6362">data</tspan></text>
    <rect
       style="fill:none;stroke:#000000;stroke-width:1;stroke-linejoin:miter;stroke-miterlimit:4;stroke-opacity:1;stroke-dasharray:none;stroke-dashoffset:0"
       id="rect2985-9-0"
       width="104.28571"
       height="104.429"
       x="-1.6030358"
       y="499.52368" />
    <rect
       style="fill:#ffffff;fill-opacity:1;stroke:#000000;stroke-width:1;stroke-linejoin:miter;stroke-miterlimit:4;stroke-opacity:1;stroke-dasharray:none;stroke-dashoffset:0"
       id="rect2985-9-02"
       width="104.28571"
       height="104.429"
       x="12.68267"
       y="516.30939" />
    <rect
       style="fill:#ffffff;fill-opacity:1;stroke:#000000;stroke-width:1;stroke-linejoin:miter;stroke-miterlimit:4;stroke-opacity:1;stroke-dasharray:none;stroke-dashoffset:0"
       id="rect2985-9-02-9"
       width="104.28571"
       height="104.429"
       x="29.468384"
       y="533.30939" />
    <rect
       style="fill:#ffffff;fill-opacity:1;stroke:#000000;stroke-width:1;stroke-linejoin:miter;stroke-miterlimit:4;stroke-opacity:1;stroke-dasharray:none;stroke-dashoffset:0"
       id="rect2985-9-02-96"
       width="104.28571"
       height="104.429"
       x="45.539803"
       y="551.80939" />
    <rect
       style="fill:#ffffff;fill-opacity:1;stroke:#000000;stroke-width:1;stroke-linejoin:miter;stroke-miterlimit:4;stroke-opacity:1;stroke-dasharray:none;stroke-dashoffset:0"
       id="rect2985-9-02-1"
       width="104.28571"
       height="104.429"
       x="65.182678"
       y="571.6665" />
    <text
       xml:space="preserve"
       style="font-size:12px;font-style:normal;font-weight:normal;line-height:125%;letter-spacing:0px;word-spacing:0px;fill:#000000;fill-opacity:1;stroke:none;font-family:Sans"
       x="72.682678"
       y="588.52386"
       id="text6428"
       sodipodi:linespacing="125%"><tspan
         sodipodi:role="line"
         id="tspan6430"
         x="72.682678"
         y="588.52386">testexec 1</tspan></text>
    <text
       xml:space="preserve"
       style="font-size:12px;font-style:normal;font-weight:normal;line-height:125%;letter-spacing:0px;word-spacing:0px;fill:#000000;fill-opacity:1;stroke:none;font-family:Sans"
       x="50.924156"
       y="564.95581"
       id="text6428-9"
       sodipodi:linespacing="125%"><tspan
         sodipodi:role="line"
         id="tspan6430-9"
         x="50.924156"
         y="564.95581">testexec 2</tspan></text>
    <text
       xml:space="preserve"
       style="font-size:12px;font-style:normal;font-weight:normal;line-height:125%;letter-spacing:0px;word-spacing:0px;fill:#000000;fill-opacity:1;stroke:none;font-family:Sans"
       x="33.781303"
       y="546.74152"
       id="text6428-5"
       sodipodi:linespacing="125%"><tspan
         sodipodi:role="line"
         id="tspan6430-7"
         x="33.781303"
         y="546.74152">testexec 3</tspan></text>
    <text
       xml:space="preserve"
       style="font-size:12px;font-style:normal;font-weight:normal;line-height:125%;letter-spacing:0px;word-spacing:0px;fill:#000000;fill-opacity:1;stroke:none;font-family:Sans"
       x="4.1384497"
       y="512.81299"
       id="text6428-2"
       sodipodi:linespacing="125%"><tspan
         sodipodi:role="line"
         id="tspan6430-6"
         x="4.1384497"
         y="512.81299">testexec N</tspan></text>
    <text
       xml:space="preserve"
       style="font-size:12px;font-style:normal;font-weight:normal;line-height:125%;letter-spacing:0px;word-spacing:0px;fill:#000000;fill-opacity:1;stroke:none;font-family:Sans"
       x="17.709877"
       y="528.52728"
       id="text6428-7"
       sodipodi:linespacing="125%"><tspan
         sodipodi:role="line"
         id="tspan6430-5"
         x="17.709877"
         y="528.52728">......</tspan></text>
    <path
       style="fill:none;stroke:#000000;stroke-width:1;stroke-linecap:butt;stroke-linejoin:miter;stroke-miterlimit:4;stroke-opacity:1;stroke-dasharray:3, 3;stroke-dashoffset:0;marker-start:url(#Arrow1Lstart);marker-end:none;display:inline"
       d="M 133.7541,543.09235 264.28571,425.93361"
       id="path6497"
       inkscape:connector-type="polyline"
       inkscape:connector-curvature="0" />
    <rect
       style="fill:#ffffff;fill-opacity:1;stroke:#000000;stroke-width:1;stroke-linejoin:miter;stroke-miterlimit:4;stroke-opacity:1;stroke-dasharray:none;stroke-dashoffset:0"
       id="rect5042"
       width="212.14301"
       height="102.14285"
       x="266.42859"
       y="355.93362" />
    <text
       xml:space="preserve"
       style="font-size:12px;font-style:normal;font-weight:normal;line-height:125%;letter-spacing:0px;word-spacing:0px;fill:#000000;fill-opacity:1;stroke:none;font-family:Sans"
       x="337.46631"
       y="405.42239"
       id="text5600"
       sodipodi:linespacing="125%"><tspan
         sodipodi:role="line"
         id="tspan5602"
         x="337.46631"
         y="405.42239">test_client</tspan></text>
    <rect
       style="fill:#ffffff;fill-opacity:1;stroke:#000000;stroke-width:1;stroke-linejoin:miter;stroke-miterlimit:4;stroke-opacity:1;stroke-dasharray:none;stroke-dashoffset:0"
       id="rect5042-0"
       width="212.14301"
       height="102.14285"
       x="262.5"
       y="152.71933" />
    <text
       xml:space="preserve"
       style="font-size:12px;font-style:normal;font-weight:normal;line-height:125%;letter-spacing:0px;word-spacing:0px;fill:#000000;fill-opacity:1;stroke:none;font-family:Sans"
       x="332.8847"
       y="203.99306"
       id="text5600-9"
       sodipodi:linespacing="125%"><tspan
         sodipodi:role="line"
         id="tspan5602-2"
         x="332.8847"
         y="203.99306">test_server</tspan></text>
    <rect
       style="fill:none;stroke:#000000;stroke-width:1;stroke-linejoin:miter;stroke-miterlimit:4;stroke-opacity:1;stroke-dasharray:none;stroke-dashoffset:0"
       id="rect3759-14-5-8"
       width="77.14286"
       height="70"
       x="436.85712"
       y="270.93362"
       rx="15"
       ry="15" />
    <text
       xml:space="preserve"
       style="font-size:12px;font-style:normal;font-weight:normal;line-height:125%;letter-spacing:0px;word-spacing:0px;fill:#000000;fill-opacity:1;stroke:none;font-family:Sans"
       x="449.37958"
       y="287.60202"
       id="text4409-0-1-6"
       sodipodi:linespacing="125%"><tspan
         sodipodi:role="line"
         x="449.37958"
         y="287.60202"
         id="tspan5940-9-1">raw</tspan><tspan
         sodipodi:role="line"
         x="449.37958"
         y="302.60202"
         id="tspan6362-1">traces</tspan></text>
    <path
       style="fill:none;stroke:#000000;stroke-width:1px;stroke-linecap:butt;stroke-linejoin:miter;stroke-opacity:1;marker-end:url(#marker4828)"
       d="m 426.48863,355.93362 17.09895,-17.46933"
       id="path5677"
       inkscape:connector-type="polyline"
       inkscape:connector-curvature="0"
       inkscape:connection-end="#rect3759-14-5-8"
       inkscape:connection-end-point="d4" />
    <path
       style="fill:none;stroke:#000000;stroke-width:1px;stroke-linecap:butt;stroke-linejoin:miter;stroke-opacity:1;marker-end:url(#marker4828)"
       d="M 443.04691,273.77686 423.99997,254.86218"
       id="path5679"
       inkscape:connector-type="polyline"
       inkscape:connector-curvature="0"
       inkscape:connection-start="#rect3759-14-5-8"
       inkscape:connection-start-point="d4" />
    <path
       style="fill:none;stroke:#000000;stroke-width:1px;stroke-linecap:butt;stroke-linejoin:miter;stroke-opacity:1;marker-end:url(#marker4828)"
       d="M 137.61124,221.92411 262.5,212.11874"
       id="path6661"
       inkscape:connector-type="polyline"
       inkscape:connector-curvature="0"
       inkscape:connection-start="#rect3759"
       inkscape:connection-start-point="d4"
       inkscape:connection-end="#rect5042-0"
       inkscape:connection-end-point="d4" />
    <path
       style="fill:none;stroke:#000000;stroke-width:1px;stroke-linecap:butt;stroke-linejoin:miter;stroke-opacity:1;marker-start:url(#Arrow1Lstart);marker-end:url(#marker4828);display:inline"
       d="m 294.17142,255.35182 -0.25254,97.9848"
       id="path6859"
       inkscape:connector-type="polyline"
       inkscape:connector-curvature="0" />
    <text
       xml:space="preserve"
       style="font-size:12px;font-style:normal;font-weight:normal;line-height:125%;letter-spacing:0px;word-spacing:0px;fill:#000000;fill-opacity:1;stroke:none;font-family:Sans"
       x="300.16956"
       y="290.52316"
       id="text4409-0-1-6-1"
       sodipodi:linespacing="125%"><tspan
         sodipodi:role="line"
         x="300.16956"
         y="290.52316"
         id="tspan5940-9-1-3">Socket</tspan><tspan
         sodipodi:role="line"
         x="300.16956"
         y="305.52316"
         id="tspan6362-1-1">(raw trace ready)</tspan></text>
    <path
       style="fill:none;stroke:#000000;stroke-width:1px;stroke-linecap:butt;stroke-linejoin:miter;stroke-opacity:1;marker-start:url(#Arrow1Lstart);marker-end:none;display:inline"
       d="M 609.45236,207.77317 486.74604,167.28562"
       id="path7501"
       inkscape:connector-type="polyline"
       inkscape:connector-curvature="0"
       transform="translate(-12.103036,71.503953)"
       inkscape:connection-end="#rect5042-0"
       inkscape:connection-end-point="d4" />
  </g>
</svg>
